{
    "message": {
        "MESSAGE_HEADER": {
            "SENDING_APPLICATION": "IQCARE",
            "SENDING_FACILITY": "10829",
            "RECEIVING_APPLICATION": "IL",
            "RECEIVING_FACILITY": "10829",
            "MESSAGE_DATETIME": "20170713110000",
            "SECURITY": "",
            "MESSAGE_TYPE": "ORU^R01",
            "PROCESSING_ID": "P"
        },
        "PATIENT_IDENTIFICATION": {
            "EXTERNAL_PATIENT_ID": {
                "ID": "110ec58a-a0f2-4ac4-8393-c866d813b8d1",
                "IDENTIFIER_TYPE": "GODS_NUMBER",
                "ASSIGNING_AUTHORITY": "MPI"
            },
            "INTERNAL_PATIENT_ID": [
                {
                    "ID": "12345678",
                    "IDENTIFIER_TYPE": "CCC_NUMBER",
                    "ASSIGNING_AUTHORITY": "CCC"
                },
                {
                    "ID": "001",
                    "IDENTIFIER_TYPE": "HTS_NUMBER",
                    "ASSIGNING_AUTHORITY": "HTS"
                }, {
                    "ID": "125-87-6-1",
                    "IDENTIFIER_TYPE": "HDSS_ID",
                    "ASSIGNING_AUTHORITY": "CCC"
                }
                , {
                    "ID": "T4ENUM-9081",
                    "IDENTIFIER_TYPE": "SOURCE_SYSTEM_ID",
                    "ASSIGNING_AUTHORITY": "SOURCE SYSTEM"
                }
                , {
                    "ID": "12/07",
                    "IDENTIFIER_TYPE": "TB_NUMBER",
                    "ASSIGNING_AUTHORITY": "TB"
                }
                , {
                    "ID": "12345678",
                    "IDENTIFIER_TYPE": "ANC_NUMBER",
                    "ASSIGNING_AUTHORITY": "ANC"
                }
                , {
                    "ID": "12345678",
                    "IDENTIFIER_TYPE": "PMTCT_NUMBER",
                    "ASSIGNING_AUTHORITY": "PMTCT"
                }
                , {
                    "ID": "12345678",
                    "IDENTIFIER_TYPE": "OPD_NUMBER",
                    "ASSIGNING_AUTHORITY": "OPD"
                }
                , {
                    "ID": "12345678",
                    "IDENTIFIER_TYPE": "NATIONAL_ID",
                    "ASSIGNING_AUTHORITY": "GOK"
                }
                , {
                    "ID": "12345678",
                    "IDENTIFIER_TYPE": "NHIF",
                    "ASSIGNING_AUTHORITY": "NHIF"
                }
            ],
            "PATIENT_NAME": {
                "FIRST_NAME": "THERESA",
                "MIDDLE_NAME": "MAY",
                "LAST_NAME": "WAIRIMU"
            }
        },
        "OBSERVATION_RESULT": [
            {
                "OBSERVATION_IDENTIFIER": "START_HEIGHT",
                "OBSERVATION_SUB_ID": "",
                "CODING_SYSTEM": "",
                "VALUE_TYPE": "NM",
                "OBSERVATION_VALUE": "120",
                "UNITS": "CM",
                "OBSERVATION_RESULT_STATUS": "F",
                "OBSERVATION_DATETIME": "20170713110000",
                "ABNORMAL_FLAGS": "N"
            }
            , {
                "OBSERVATION_IDENTIFIER": "START_WEIGHT",
                "OBSERVATION_SUB_ID": "",
                "CODING_SYSTEM": "",
                "VALUE_TYPE": "NM",
                "OBSERVATION_VALUE": "120",
                "UNITS": "KG",
                "OBSERVATION_RESULT_STATUS": "F",
                "OBSERVATION_DATETIME": "20170713110000",
                "ABNORMAL_FLAGS": "N"
            }
            , {
                "OBSERVATION_IDENTIFIER": "IS_PREGNANT",
                "OBSERVATION_SUB_ID": "",
                "CODING_SYSTEM": "",
                "VALUE_TYPE": "CE",
                "OBSERVATION_VALUE": "N",
                "UNITS": "YES/NO",
                "OBSERVATION_RESULT_STATUS": "F",
                "OBSERVATION_DATETIME": "20170713110000",
                "ABNORMAL_FLAGS": "N"
            }
            , {
                "OBSERVATION_IDENTIFIER": "PRENGANT_EDD",
                "OBSERVATION_SUB_ID": "",
                "CODING_SYSTEM": "",
                "VALUE_TYPE": "DT",
                "OBSERVATION_VALUE": "20170713110000",
                "UNITS": "",
                "OBSERVATION_RESULT_STATUS": "F",
                "OBSERVATION_DATETIME": "20170713110000",
                "ABNORMAL_FLAGS": "N"
            }
            , {
                "OBSERVATION_IDENTIFIER": "CURRENT_REGIMEN",
                "OBSERVATION_SUB_ID": "",
                "CODING_SYSTEM": "NASCOP_CODES",
                "VALUE_TYPE": "CE",
                "OBSERVATION_VALUE": "AF1A",
                "UNITS": "",
                "OBSERVATION_RESULT_STATUS": "F",
                "OBSERVATION_DATETIME": "20170713110000",
                "ABNORMAL_FLAGS": "N"
            }
            , {
                "OBSERVATION_IDENTIFIER": "IS_SMOKER",
                "OBSERVATION_SUB_ID": "",
                "CODING_SYSTEM": "",
                "VALUE_TYPE": "CE",
                "OBSERVATION_VALUE": "Y",
                "UNITS": "YES/NO",
                "OBSERVATION_RESULT_STATUS": "F",
                "OBSERVATION_DATETIME": "20170713110000",
                "ABNORMAL_FLAGS": "N"
            }
            , {
                "OBSERVATION_IDENTIFIER": "IS_ALCOHOLIC",
                "OBSERVATION_SUB_ID": "",
                "CODING_SYSTEM": "",
                "VALUE_TYPE": "CE",
                "OBSERVATION_VALUE": "Y",
                "UNITS": "YES/NO",
                "OBSERVATION_RESULT_STATUS": "F",
                "OBSERVATION_DATETIME": "20170713110000",
                "ABNORMAL_FLAGS": "N"
            }
            , {
                "OBSERVATION_IDENTIFIER": "HIV_DIAGNOSIS",
                "OBSERVATION_SUB_ID": "",
                "CODING_SYSTEM": "",
                "VALUE_TYPE": "DT",
                "OBSERVATION_VALUE": "20170707",
                "UNITS": "",
                "OBSERVATION_RESULT_STATUS": "F",
                "OBSERVATION_DATETIME": "20170713110000",
                "ABNORMAL_FLAGS": "N"
            }
            , {
                "OBSERVATION_IDENTIFIER": "HIV_CARE_INITIATION",
                "OBSERVATION_SUB_ID": "",
                "CODING_SYSTEM": "",
                "VALUE_TYPE": "DT",
                "OBSERVATION_VALUE": "20170707",
                "UNITS": "",
                "OBSERVATION_RESULT_STATUS": "F",
                "OBSERVATION_DATETIME": "20170713110000",
                "ABNORMAL_FLAGS": "N"
            }
            , {
                "OBSERVATION_IDENTIFIER": "COTRIMOXAZOLE_START",
                "OBSERVATION_SUB_ID": "",
                "CODING_SYSTEM": "",
                "VALUE_TYPE": "DT",
                "OBSERVATION_VALUE": "20170707",
                "UNITS": "",
                "OBSERVATION_RESULT_STATUS": "F",
                "OBSERVATION_DATETIME": "20170713110000",
                "ABNORMAL_FLAGS": "N"
            }
            , {
                "OBSERVATION_IDENTIFIER": "ART_START",
                "OBSERVATION_SUB_ID": "",
                "CODING_SYSTEM": "",
                "VALUE_TYPE": "DT",
                "OBSERVATION_VALUE": "20170707",
                "UNITS": "",
                "OBSERVATION_RESULT_STATUS": "F",
                "OBSERVATION_DATETIME": "20170713110000",
                "ABNORMAL_FLAGS": "N"
            }
            , {
                "OBSERVATION_IDENTIFIER": "PMTCT_INITIATION",
                "OBSERVATION_SUB_ID": "",
                "CODING_SYSTEM": "",
                "VALUE_TYPE": "DT",
                "OBSERVATION_VALUE": "20170707",
                "UNITS": "",
                "OBSERVATION_RESULT_STATUS": "F",
                "OBSERVATION_DATETIME": "20170713110000",
                "ABNORMAL_FLAGS": "N"
            }
            , {
                "OBSERVATION_IDENTIFIER": "CD4_COUNT",
                "OBSERVATION_SUB_ID": "",
                "CODING_SYSTEM": "",
                "VALUE_TYPE": "NM",
                "OBSERVATION_VALUE": "145",
                "UNITS": "n/dl",
                "OBSERVATION_RESULT_STATUS": "F",
                "OBSERVATION_DATETIME": "20170713110000",
                "ABNORMAL_FLAGS": "N"
            }
            , {
                "OBSERVATION_IDENTIFIER": "CD4_PERCENT",
                "OBSERVATION_SUB_ID": "",
                "CODING_SYSTEM": "",
                "VALUE_TYPE": "NM",
                "OBSERVATION_VALUE": "56",
                "UNITS": "%",
                "OBSERVATION_RESULT_STATUS": "F",
                "OBSERVATION_DATETIME": "20170713110000",
                "ABNORMAL_FLAGS": "N"
            }
            , {
                "OBSERVATION_IDENTIFIER": "TB_DIAGNOSIS_DATE",
                "OBSERVATION_SUB_ID": "",
                "CODING_SYSTEM": "",
                "VALUE_TYPE": "DT",
                "OBSERVATION_VALUE": "20170707",
                "UNITS": "",
                "OBSERVATION_RESULT_STATUS": "F",
                "OBSERVATION_DATETIME": "20170713110000",
                "ABNORMAL_FLAGS": "N"
            }
            , {
                "OBSERVATION_IDENTIFIER": "TB_TREATMENT_START_DATE",
                "OBSERVATION_SUB_ID": "",
                "CODING_SYSTEM": "",
                "VALUE_TYPE": "DT",
                "OBSERVATION_VALUE": "20170707",
                "UNITS": "",
                "OBSERVATION_RESULT_STATUS": "F",
                "OBSERVATION_DATETIME": "20170713110000",
                "ABNORMAL_FLAGS": "N"
            }
            , {
                "OBSERVATION_IDENTIFIER": "TB_TREATMENT_COMPLETE_DATE",
                "OBSERVATION_SUB_ID": "",
                "CODING_SYSTEM": "",
                "VALUE_TYPE": "DT",
                "OBSERVATION_VALUE": "20170707",
                "UNITS": "",
                "OBSERVATION_RESULT_STATUS": "F",
                "OBSERVATION_DATETIME": "20170713110000",
                "ABNORMAL_FLAGS": "N"
            }
            , {
                "OBSERVATION_IDENTIFIER": "WHO_STAGE",
                "OBSERVATION_SUB_ID": "",
                "CODING_SYSTEM": "",
                "VALUE_TYPE": "NM",
                "OBSERVATION_VALUE": "3",
                "UNITS": "",
                "OBSERVATION_RESULT_STATUS": "F",
                "OBSERVATION_DATETIME": "20170713110000",
                "ABNORMAL_FLAGS": "N"
            }
            , {
                "OBSERVATION_IDENTIFIER": "CHILD_BIRTH",
                "OBSERVATION_SUB_ID": "",
                "CODING_SYSTEM": "",
                "VALUE_TYPE": "DT",
                "OBSERVATION_VALUE": "20170707",
                "UNITS": "",
                "OBSERVATION_RESULT_STATUS": "F",
                "OBSERVATION_DATETIME": "20170713110000",
                "ABNORMAL_FLAGS": "N"
            }
            , {
                "OBSERVATION_IDENTIFIER": "DATE_SAMPLE_COLLECTED",
                "OBSERVATION_SUB_ID": "VIRAL_LOAD_RESULT",
                "CODING_SYSTEM": "",
                "VALUE_TYPE": "DT",
                "OBSERVATION_VALUE": "20170707",
                "UNITS": "",
                "OBSERVATION_RESULT_STATUS": "F",
                "OBSERVATION_DATETIME": "20170713110000",
                "ABNORMAL_FLAGS": "N"
            }
            , {
                "OBSERVATION_IDENTIFIER": "DATE_SAMPLE_TESTED",
                "OBSERVATION_SUB_ID": "VIRAL_LOAD_RESULT",
                "CODING_SYSTEM": "",
                "VALUE_TYPE": "DT",
                "OBSERVATION_VALUE": "20170707",
                "UNITS": "",
                "OBSERVATION_RESULT_STATUS": "F",
                "OBSERVATION_DATETIME": "20170713110000",
                "ABNORMAL_FLAGS": "N"
            }
            , {
                "OBSERVATION_IDENTIFIER": "VIRAL_LOAD",
                "OBSERVATION_SUB_ID": "VIRAL_LOAD_RESULT",
                "CODING_SYSTEM": "",
                "VALUE_TYPE": "NM",
                "OBSERVATION_VALUE": "145",
                "UNITS": "cp/ml",
                "OBSERVATION_RESULT_STATUS": "F",
                "OBSERVATION_DATETIME": "20170713110000",
                "ABNORMAL_FLAGS": "N"
            }
            , {
                "OBSERVATION_IDENTIFIER": "SAMPLE_TYPE",
                "OBSERVATION_SUB_ID": "VIRAL_LOAD_RESULT",
                "CODING_SYSTEM": "",
                "VALUE_TYPE": "ST",
                "OBSERVATION_VALUE": "BLOOD SAMPLE",
                "UNITS": "",
                "OBSERVATION_RESULT_STATUS": "F",
                "OBSERVATION_DATETIME": "20170713110000",
                "ABNORMAL_FLAGS": "N"
            }
            , {
                "OBSERVATION_IDENTIFIER": "JUSTIFICATION",
                "OBSERVATION_SUB_ID": "VIRAL_LOAD_RESULT",
                "CODING_SYSTEM": "",
                "VALUE_TYPE": "ST",
                "OBSERVATION_VALUE": "**",
                "UNITS": "",
                "OBSERVATION_RESULT_STATUS": "F",
                "OBSERVATION_DATETIME": "20170713110000",
                "ABNORMAL_FLAGS": "N"
            }
            , {
                "OBSERVATION_IDENTIFIER": "LAB_TESTED_IN",
                "OBSERVATION_SUB_ID": "VIRAL_LOAD_RESULT",
                "CODING_SYSTEM": "",
                "VALUE_TYPE": "ST",
                "OBSERVATION_VALUE": "KEMRI LAB SIAYA",
                "UNITS": "",
                "OBSERVATION_RESULT_STATUS": "F",
                "OBSERVATION_DATETIME": "20170713110000",
                "ABNORMAL_FLAGS": "N"
            }
        ]
    }
}